{
    "app_name": "TODO App",
    "server_url": "https://api.cyberoauth.tk",
    "scopes": [
        {
            "name": "list",
            "description": "List all your tasks."
        },
        {
            "name": "read",
            "description": "Read a task knowing it's identifier."
        },
        {
            "name": "create",
            "description": "Create a task."
        },
        {
            "name": "delete",
            "description": "Delete a task."
        },
        {
            "name": "update",
            "description": "Update a task."
        },
        {
            "name": "email",
            "description": "Get your email."
        }
    ],
    "endpoints": {
        "token": "token",
        "authorize": "authorize",
        "introspect": "introspect"
    },
    "application": {
        "client_id": "e605fe67e4eaec030425",
        "client_secret": "719f764a5724843e8a8467c282d56214",
        "redirect_uri": "http://xxx.yyy/callback"
    }
}

